[
  {
    "image":"pushkin",
    "title":"Tavern Pushkin",
    "description":"₽₽₽ • European",
    "price":"40 - 50 min"
  },
  {
    "image":"burger",
    "title":"McDonald's — Newspaper",
    "description":"₽₽ • Burgers",
    "price":"25 - 35 min"
  },
  {
    "image":"photo",
    "title":"DimSum & Co — ЦДМ",
    "description":"₽ • Japanese • Chinese • Asian",
    "price":"40 - 50 min"
  },
  {
    "image":"photo3",
    "title":"Engine — Manezhnaya",
    "description":"₽ • American • European",
    "price":"35 - 45 min"
  },
  {
    "image":"NHA",
    "title":"NJ — NHA",
    "description":"₽₽ • Vietnamese",
    "price":"30 - 40 min"
  },
  {
    "image":"color",
    "title":"Dzi point — Color",
    "description":"₽₽ • Vietnamese",
    "price":"40 - 50 min"
  },
  {
    "image":"cinnabon",
    "title":"Cinnabon",
    "description":"₽ • Bakery • Desserts • Cupcakes",
    "price":"25 - 35 min"
  },
  {
    "image":"pizzalove",
    "title":"PIZZELOVE",
    "description":"₽₽ • Pizza",
    "price":"15 - 25 min"
  },
  {
    "image":"JuCaffei",
    "title":"Zю cafe — Tverskaya",
    "description":"₽₽ • Japanese",
    "price":"25 - 35 min"
  },
  {
    "image":"Bar",
    "title":"Bar BQ Cafe — Manezhnaya",
    "description":"₽₽₽ • European",
    "price":"30 - 40 min"
  }
]