[
    {
       "image": "herring",
       "title": "Herring on Borodino bread",
       "description": "With egg and cucumber",
       "price": "240 ₽"
    },
    {
       "image": "pickles",
       "title": "Assorted pickles",
       "description": "",
       "price": "320 ₽"
    },
    {
       "image": "mushrooms",
       "title": "Marinated mushrooms",
       "description": "",
       "price": "300 ₽"
    },
    {
       "image": "lard",
       "title": "Homemade bacon with mustard",
       "description": "",
       "price": "320 ₽"
    },
    {
       "image": "salmon",
       "title": "Lightly salted salmon",
       "description": "",
       "price": "390 ₽"
    },
    {
       "image": "beef",
       "title": "Beef tongue with horseradish",
       "description": "",
       "price": "350 ₽"
    }
 ]